module bitbucket.org/sichkar_andrii/spotify-bot

go 1.16

require (
	github.com/BurntSushi/toml v0.3.1 // indirect
	github.com/gorilla/mux v1.8.0 // indirect
	github.com/lib/pq v1.10.2 // indirect
	github.com/sirupsen/logrus v1.8.1 // indirect
	github.com/stretchr/testify v1.7.0 // indirect
)
